"Variable / Field Name";"Form Name";"Section Header";"Field Type";"Field Label";"Choices, Calculations, OR Slider Labels";"Field Note";"Text Validation Type OR Show Slider Number";"Text Validation Min";"Text Validation Max";Identifier?;"Branching Logic (Show field only if...)";"Required Field?";"Custom Alignment";"Question Number (surveys only)";"Matrix Group Name";"Matrix Ranking?";"Field Annotation"
record_id;data;;text;"Record ID";;;;;;;;;;;;;
article_title;data;;text;"Title of article";;;;;;;;;;;;;
pubmedid;data;;text;PubmedID;;;;;;;;;;;;;
trn_exists;data;;text;"TRN exists";;;;;;;;;;;;;
trn;data;;text;TRN;;;;;;;;;;;;;
author_first_name;data;;text;"author first name";;;;;;;;;;;;;
author_last_name;data;;text;author_last_name;;;;;;;;;;;;;
author_email;data;;text;"author email";;;email;;;;;;;;;;
author_status;data;;text;"author status";;;;;;;;;;;;;
test;data;;text;test;;;;;;;;;;;;;
retro_role;enquete_retrospectif;;checkbox;"When you registered this study, what was your role? ";"1, Trial coordinator/research staff | 2, Principal investigator/chief investigator | 3, Administrative assistant | 4, Contract research organisation (CRO) staff | 5, Other";;;;;;;y;;;;;
retro_role_other;enquete_retrospectif;;text;"Please specify your role in the study";;;;;;;"[retro_role(5)] = '1'";y;;;;;
retro_reasons;enquete_retrospectif;;checkbox;"Why was your study not registered  prior to enrolment of the first participant (i.e. prospectively)?";"1, We were not aware of the prospective registration requirement. | 2, We did not think prospective registration was important. | 3, We did not have enough time. | 4, We knew it was a requirement but forgot to do it. | 5, We already registered prospectively elsewhere. | 6, We thought the prospective registration requirement only applied to industry funded trials. | 7, We thought the prospective registration requirement only applied to drug-related trials. | 8, We did not realize that our study meets the definition of a clinical trial. | 9, We thought it was sufficient to submit the form before commencing enrolment - We did not realise  that full approval was required. | 10, Other reasons";;;;;;;y;;;;;
retro_reasons_others;enquete_retrospectif;;text;"Please specify why your study was not prospectively registered";;;;;;;"[retro_reasons(10)] = '1'";y;;;;;
retro_improve;enquete_retrospectif;;checkbox;"Please tick any factors that would have helped you to register your study before the first participant was enrolled.
";"1, Registration number required on ethics form | 2, Having ethics submission automatically uploaded to a clinical trial registry. | 3, Having prospective registration on a checklist provided by ethics committee or another regulatory body. | 4, Software prompts from a regulatory body/other. | 5, Having it included in my organisation's procedures manual. | 6, Prospective registration required by journals | 7, Other";;;;;;;y;;;;;
retro_improve_other;enquete_retrospectif;;text;"Please specify a factor that would have helped you to register your study before the first participant was enrolled";;;;;;;"[retro_improve(7)] = '1'";y;;;;;
notrn_confirm;enquete_notrn;;radio;"To the best of our knowledge, the clinical trial reported in your article has not been registered in a WHO associated registry.";"1, The clinical trial has not been registered | 2, The clinical trial has been registered in a WHO associated registry | 3, The clinical trial has been registered in an other registry | 4, The clinical trial recruitment started before 2005 | 5, The article does not report the findings of a clinical trial";;;;;;;y;;;;;
notrn_trnexists;enquete_notrn;;text;"Please specify the registration number of your trial";;;;;;;"[notrn_confirm] = '2' or [notrn_confirm] = '3'";y;;;;;
notrn_reasons;enquete_notrn;;checkbox;"Why was your study not registered  ?";"1, We were not aware of the registration requirement. | 2, We did not think registration was important. | 3, We did not have enough time. | 4, We knew it was a requirement but forgot to do it. | 5, We thought the registration requirement only applied to industry funded trials. | 6, We thought the registration requirement only applied to drug-related trials. | 7, We did not realize that our study meets the definition of a clinical trial. | 8, Other reasons";;;;;;"[notrn_confirm] = '1'";y;;;;;
notrn_reasons_other;enquete_notrn;;text;"Please specify why your study was not registered";;;;;;;"[notrn_confirm] = '1' and [notrn_reasons(8)] = '1'";y;;;;;
notrn_improve;enquete_notrn;;checkbox;"Please tick any factors that would have helped you to register your study.";"1, Registration number required on ethics form | 2, Having ethics submission automatically uploaded to a clinical trial registry. | 3, Having registration on a checklist provided by ethics committee or another regulatory body. | 4, Software prompts from a regulatory body/other. | 5, Having it included in my organisation's procedures manual. | 6, Registration required by journals | 7, Other";;;;;;"[notrn_confirm] = '1'";y;;;;;
inotrn_mprove_other;enquete_notrn;;text;"Please specify a factor that would have helped you to register your study";;;;;;;"[notrn_confirm] = '1' and [notrn_improve(7)] = '1'";y;;;;;
